{
    "project_type": "javascript",

    "debugMode" : 1,
    "showFPS" : true,
    "frameRate" : 60,
    "noCache" : false,
    "id" : "gameCanvas",
    "renderMode" : 0,
    "engineDir":"frameworks/cocos2d-html5",

    "modules": [
        "cocos2d",
        "chipmunk",
        "ccui",
        "cocostudio",
        "extensions",
        "physics"
    ],

    "jsList": [
        "src/resource.js",
        "src/app.js",
        "src/layer/game-menu-layer1.js",
        "src/layer/pageview-layer.js",
        "src/scene/pageview-scene.js",
        "src/sdkbox/sdkbox_Manager.js",
        "src/sdkbox/sdkbox_GA.js",
        "src/layer/repeat-background-layer.js",
        "src/layer/game-menu-layer.js",
        "src/layer/game-store-layer.js",
        "src/layer/statistics-layer.js",
        "src/layer/play-layer.js",
        "src/scene/play-scene.js",
        "src/scene/splash-scene.js",
        "src/scene/welcome-scene.js",
        "src/role/hero.js",
        "src/layer/game-opening-layer.js",
        "src/layer/game-over-layer.js",
        "src/layer/game-background-layer.js",
        "src/layer/hub-layer.js",
        "src/layer/hudlayer.js",
        "src/util/simple-touch-recognizer.js",
        "src/role/player.js",
        "src/role/platform.js",
        "src/role/gold.js",
        "src/role/frog.js",
        "src/role/bird.js",
        "src/role/magnet.js",
        "src/role/spring.js",
        "src/role/spring-generator.js",
        "src/role/shoes.js",
        "src/role/redshoes.js",
        "src/role/object-shaped-generator.js",
        "src/role/object-random-generator.js",
        "src/role/object-io-generator.js",
        "src/role/redshoes-generator.js",
        "src/role/shoes-generator.js",
        "src/role/double-jump-shoe.js",
        "src/role/speed-up-shoe.js",
        "src/role/magnet-cloth.js",
        "src/role/magnet-generator.js",
        "src/role/frog-generator.js",
        "src/role/platform-generator.js",
        "src/role/gold-generator.js",
        "src/role/bird-generator.js",
        "src/util/statistics.js",
        "src/effect/magnet-effect.js",
        "src/layer/game-mode-layer.js",
        "src/layer/info-layer.js",
        "src/layer/rank-layer.js",
        "src/scene/info-scene.js"
    ]
}
