{
  "ID": "c1ddccdd-73e9-4086-b03b-fa47861b4cd3",
  "Version": "3.10.0.0",
  "Name": "PageViewLayer",
  "Content": {
    "Content": {
      "Animation": {
        "Duration": 60,
        "Speed": 1.0,
        "Timelines": [
          {
            "ActionTag": 301840654,
            "Property": "Position",
            "Frames": [
              {
                "X": 959.9984,
                "Y": 532.2794,
                "FrameIndex": 0,
                "EasingData": {
                  "Type": 1
                },
                "ctype": "PointFrameData"
              },
              {
                "X": 959.9984,
                "Y": 532.2794,
                "FrameIndex": 60,
                "EasingData": {
                  "Type": 3
                },
                "ctype": "PointFrameData"
              }
            ],
            "ctype": "TimelineData"
          },
          {
            "ActionTag": 301840654,
            "Property": "Scale",
            "Frames": [
              {
                "X": 9.6835,
                "Y": 5.4646,
                "FrameIndex": 0,
                "EasingData": {
                  "Type": 0
                },
                "ctype": "ScaleValueFrameData"
              }
            ],
            "ctype": "TimelineData"
          },
          {
            "ActionTag": 301840654,
            "Property": "RotationSkew",
            "Frames": [
              {
                "X": 0.0,
                "Y": 0.0,
                "FrameIndex": 0,
                "EasingData": {
                  "Type": 0
                },
                "ctype": "ScaleValueFrameData"
              },
              {
                "X": 0.0,
                "Y": 0.0,
                "FrameIndex": 60,
                "EasingData": {
                  "Type": 0
                },
                "ctype": "ScaleValueFrameData"
              }
            ],
            "ctype": "TimelineData"
          }
        ],
        "ctype": "TimelineActionData"
      },
      "AnimationList": [],
      "ObjectData": {
        "UserData": "OHH YeahDuff MAn",
        "Tag": 106,
        "Children": [
          {
            "FileData": {
              "Type": "Normal",
              "Path": "environment1/BG_1.png",
              "Plist": ""
            },
            "BlendFunc": {
              "Src": 1,
              "Dst": 771
            },
            "AnchorPoint": {
              "ScaleX": 0.5,
              "ScaleY": 0.5
            },
            "Position": {
              "X": 1929.9957,
              "Y": 539.9673
            },
            "Scale": {
              "ScaleX": 1.0,
              "ScaleY": 1.0
            },
            "CColor": {},
            "IconVisible": false,
            "PrePosition": {
              "X": 1.0052,
              "Y": 0.5
            },
            "PreSize": {
              "X": 2.0146,
              "Y": 1.0
            },
            "LeftMargin": -4.0043,
            "RightMargin": -1943.9956,
            "TopMargin": 0.0327,
            "BottomMargin": -0.0327,
            "Tag": 188,
            "ActionTag": 491194757,
            "Size": {
              "X": 3868.0,
              "Y": 1080.0
            },
            "Name": "Sprite_bg",
            "ctype": "SpriteObjectData"
          },
          {
            "ScrollDirectionType": 0,
            "ClipAble": false,
            "BackColorAlpha": 102,
            "ComboBoxIndex": 1,
            "SingleColor": {
              "R": 98,
              "G": 177,
              "B": 208
            },
            "FirstColor": {
              "R": 150,
              "G": 150,
              "B": 100
            },
            "EndColor": {},
            "ColorVector": {
              "ScaleY": 1.0
            },
            "Scale9Width": 1,
            "Scale9Height": 1,
            "TouchEnable": true,
            "AnchorPoint": {
              "ScaleX": 0.4971,
              "ScaleY": 0.492
            },
            "Position": {
              "X": 959.9984,
              "Y": 532.2794
            },
            "Scale": {
              "ScaleX": 9.6835,
              "ScaleY": 5.4646
            },
            "CColor": {},
            "IconVisible": false,
            "PrePosition": {
              "X": 0.5,
              "Y": 0.4929
            },
            "PreSize": {
              "X": 0.1042,
              "Y": 0.1852
            },
            "LeftMargin": 860.5784,
            "RightMargin": 859.4216,
            "TopMargin": 446.1206,
            "BottomMargin": 433.8794,
            "CallBackType": "Event",
            "Tag": 107,
            "Children": [
              {
                "ClipAble": false,
                "BackColorAlpha": 75,
                "ComboBoxIndex": 2,
                "SingleColor": {
                  "R": 167,
                  "G": 190,
                  "B": 215
                },
                "FirstColor": {
                  "R": 150,
                  "G": 200
                },
                "EndColor": {},
                "ColorVector": {
                  "ScaleX": 0.1908,
                  "ScaleY": 0.9816
                },
                "Scale9Width": 1,
                "Scale9Height": 1,
                "TouchEnable": true,
                "AnchorPoint": {},
                "Position": {
                  "X": 0.0,
                  "Y": 0.0
                },
                "Scale": {
                  "ScaleX": 1.0,
                  "ScaleY": 1.0
                },
                "CColor": {},
                "IconVisible": false,
                "PrePosition": {
                  "X": 0.0,
                  "Y": 0.0
                },
                "PreSize": {
                  "X": 0.25,
                  "Y": 1.0
                },
                "RightMargin": 600.0,
                "CallBackType": "Click",
                "Tag": 108,
                "Children": [
                  {
                    "InnerNodeSize": {
                      "Width": 200,
                      "Height": 300
                    },
                    "ScrollDirectionType": "Vertical",
                    "ClipAble": false,
                    "BackColorAlpha": 25,
                    "ComboBoxIndex": 1,
                    "SingleColor": {
                      "G": 150,
                      "B": 100
                    },
                    "FirstColor": {
                      "G": 150,
                      "B": 100
                    },
                    "EndColor": {},
                    "ColorVector": {
                      "ScaleY": 1.0
                    },
                    "Scale9Width": 1,
                    "Scale9Height": 1,
                    "TouchEnable": true,
                    "AnchorPoint": {},
                    "Position": {
                      "X": 32.5846,
                      "Y": 6.1375
                    },
                    "Scale": {
                      "ScaleX": 0.7235,
                      "ScaleY": 0.9362
                    },
                    "CColor": {},
                    "IconVisible": false,
                    "PrePosition": {
                      "X": 0.1629,
                      "Y": 0.0307
                    },
                    "PreSize": {
                      "X": 1.0,
                      "Y": 1.0
                    },
                    "LeftMargin": 32.5846,
                    "RightMargin": -32.5846,
                    "TopMargin": -6.1375,
                    "BottomMargin": 6.1375,
                    "Tag": 218,
                    "Children": [
                      {
                        "FontSize": 20,
                        "LabelText": "Goals\n",
                        "FontResource": {
                          "Type": "Normal",
                          "Path": "font/Milonga-Regular.ttf",
                          "Plist": ""
                        },
                        "HorizontalAlignmentType": "HT_Center",
                        "OutlineColor": {
                          "G": 0,
                          "B": 0
                        },
                        "ShadowColor": {
                          "R": 110,
                          "G": 110,
                          "B": 110
                        },
                        "ShadowOffsetX": 2.0,
                        "ShadowOffsetY": -2.0,
                        "AnchorPoint": {
                          "ScaleX": 0.5,
                          "ScaleY": 0.5
                        },
                        "Position": {
                          "X": 96.7468,
                          "Y": 269.0095
                        },
                        "Scale": {
                          "ScaleX": 1.0,
                          "ScaleY": 1.0
                        },
                        "CColor": {
                          "R": 26,
                          "G": 26,
                          "B": 26
                        },
                        "IconVisible": false,
                        "PrePosition": {
                          "X": 0.4837,
                          "Y": 0.8967
                        },
                        "PreSize": {
                          "X": 0.265,
                          "Y": 0.1667
                        },
                        "LeftMargin": 70.2468,
                        "RightMargin": 76.7532,
                        "TopMargin": 5.9905,
                        "BottomMargin": 244.0095,
                        "Tag": 219,
                        "ActionTag": 949725948,
                        "Size": {
                          "X": 53.0,
                          "Y": 50.0
                        },
                        "Name": "Text_1",
                        "ctype": "TextObjectData"
                      },
                      {
                        "DirectionType": "Vertical",
                        "ScrollDirectionType": 0,
                        "ClipAble": false,
                        "BackColorAlpha": 102,
                        "ComboBoxIndex": 1,
                        "SingleColor": {
                          "R": 127,
                          "G": 127,
                          "B": 127
                        },
                        "FirstColor": {
                          "R": 150,
                          "G": 150
                        },
                        "EndColor": {},
                        "ColorVector": {
                          "ScaleY": 1.0
                        },
                        "Scale9Width": 1,
                        "Scale9Height": 1,
                        "TouchEnable": true,
                        "AnchorPoint": {},
                        "Position": {
                          "X": 1.8628,
                          "Y": 71.953
                        },
                        "Scale": {
                          "ScaleX": 1.0,
                          "ScaleY": 0.9369
                        },
                        "CColor": {},
                        "IconVisible": false,
                        "PrePosition": {
                          "X": 0.0093,
                          "Y": 0.2398
                        },
                        "PreSize": {
                          "X": 1.0,
                          "Y": 0.6667
                        },
                        "LeftMargin": 1.8628,
                        "RightMargin": -1.8628,
                        "TopMargin": 28.047,
                        "BottomMargin": 71.953,
                        "Tag": 220,
                        "Children": [
                          {
                            "FontSize": 12,
                            "LabelText": "Travel 500m in one run!\n",
                            "FontResource": {
                              "Type": "Normal",
                              "Path": "font/Milonga-Regular.ttf",
                              "Plist": ""
                            },
                            "HorizontalAlignmentType": "HT_Center",
                            "VerticalAlignmentType": "VT_Center",
                            "OutlineColor": {
                              "G": 0,
                              "B": 0
                            },
                            "ShadowColor": {
                              "R": 110,
                              "G": 110,
                              "B": 110
                            },
                            "ShadowOffsetX": 2.0,
                            "ShadowOffsetY": -2.0,
                            "AnchorPoint": {
                              "ScaleX": 0.5,
                              "ScaleY": 0.5
                            },
                            "Position": {
                              "X": 69.0,
                              "Y": 185.0
                            },
                            "Scale": {
                              "ScaleX": 1.0,
                              "ScaleY": 1.0
                            },
                            "CColor": {
                              "R": 0,
                              "G": 0,
                              "B": 0
                            },
                            "IconVisible": false,
                            "PrePosition": {
                              "X": 0.345,
                              "Y": 0.925
                            },
                            "PreSize": {
                              "X": 0.69,
                              "Y": 0.15
                            },
                            "RightMargin": 62.0,
                            "BottomMargin": 170.0,
                            "Tag": 222,
                            "ActionTag": 1184171317,
                            "Size": {
                              "X": 138.0,
                              "Y": 30.0
                            },
                            "Name": "Text_8_1",
                            "ctype": "TextObjectData"
                          }
                        ],
                        "ActionTag": 29251493,
                        "Size": {
                          "X": 200.0,
                          "Y": 200.0
                        },
                        "Name": "ListView_1",
                        "ctype": "ListViewObjectData"
                      }
                    ],
                    "ActionTag": -1226471829,
                    "Size": {
                      "X": 200.0,
                      "Y": 200.0
                    },
                    "Name": "ScrollView_1",
                    "ctype": "ScrollViewObjectData"
                  }
                ],
                "ActionTag": -1124703722,
                "Size": {
                  "X": 200.0,
                  "Y": 200.0
                },
                "Alpha": 204,
                "Name": "Panel_1",
                "ctype": "PanelObjectData"
              },
              {
                "ClipAble": false,
                "BackColorAlpha": 76,
                "ComboBoxIndex": 2,
                "SingleColor": {
                  "R": 150,
                  "G": 200
                },
                "FirstColor": {
                  "R": 150,
                  "G": 200
                },
                "EndColor": {},
                "ColorVector": {
                  "ScaleY": 1.0
                },
                "Scale9Width": 1,
                "Scale9Height": 1,
                "TouchEnable": true,
                "AnchorPoint": {},
                "Position": {
                  "X": 200.0,
                  "Y": 0.0
                },
                "Scale": {
                  "ScaleX": 1.0,
                  "ScaleY": 1.0
                },
                "CColor": {},
                "IconVisible": false,
                "PrePosition": {
                  "X": 0.25,
                  "Y": 0.0
                },
                "PreSize": {
                  "X": 0.25,
                  "Y": 1.0
                },
                "LeftMargin": 200.0,
                "RightMargin": 400.0,
                "Tag": 109,
                "Children": [
                  {
                    "ClipAble": false,
                    "BackColorAlpha": 0,
                    "ComboBoxIndex": 1,
                    "SingleColor": {
                      "R": 167,
                      "G": 190,
                      "B": 215
                    },
                    "FirstColor": {
                      "R": 150,
                      "G": 200
                    },
                    "EndColor": {},
                    "ColorVector": {
                      "ScaleY": 1.0
                    },
                    "Scale9Width": 1,
                    "Scale9Height": 1,
                    "TouchEnable": true,
                    "AnchorPoint": {},
                    "Position": {
                      "X": 2.0648,
                      "Y": -3.6597
                    },
                    "Scale": {
                      "ScaleX": 0.9897,
                      "ScaleY": 1.0
                    },
                    "CColor": {},
                    "IconVisible": false,
                    "PrePosition": {
                      "X": 0.0103,
                      "Y": -0.0183
                    },
                    "PreSize": {
                      "X": 1.0,
                      "Y": 1.0
                    },
                    "LeftMargin": 2.0648,
                    "RightMargin": -2.0648,
                    "TopMargin": 3.6597,
                    "BottomMargin": -3.6597,
                    "Tag": 118,
                    "Children": [
                      {
                        "InnerNodeSize": {
                          "Width": 200,
                          "Height": 300
                        },
                        "ScrollDirectionType": "Vertical",
                        "ClipAble": false,
                        "BackColorAlpha": 25,
                        "ComboBoxIndex": 1,
                        "SingleColor": {
                          "G": 150,
                          "B": 100
                        },
                        "FirstColor": {
                          "G": 150,
                          "B": 100
                        },
                        "EndColor": {},
                        "ColorVector": {
                          "ScaleY": 1.0
                        },
                        "Scale9Width": 1,
                        "Scale9Height": 1,
                        "TouchEnable": true,
                        "AnchorPoint": {},
                        "Position": {
                          "X": 32.5846,
                          "Y": 6.1375
                        },
                        "Scale": {
                          "ScaleX": 0.7235,
                          "ScaleY": 0.9362
                        },
                        "CColor": {},
                        "IconVisible": false,
                        "PrePosition": {
                          "X": 0.1629,
                          "Y": 0.0307
                        },
                        "PreSize": {
                          "X": 1.0,
                          "Y": 1.0
                        },
                        "LeftMargin": 32.5846,
                        "RightMargin": -32.5846,
                        "TopMargin": -6.1375,
                        "BottomMargin": 6.1375,
                        "Tag": 119,
                        "Children": [
                          {
                            "FontSize": 20,
                            "LabelText": "Stats\n",
                            "FontResource": {
                              "Type": "Normal",
                              "Path": "font/Milonga-Regular.ttf",
                              "Plist": ""
                            },
                            "HorizontalAlignmentType": "HT_Center",
                            "OutlineColor": {
                              "G": 0,
                              "B": 0
                            },
                            "ShadowColor": {
                              "R": 110,
                              "G": 110,
                              "B": 110
                            },
                            "ShadowOffsetX": 2.0,
                            "ShadowOffsetY": -2.0,
                            "AnchorPoint": {
                              "ScaleX": 0.5,
                              "ScaleY": 0.5
                            },
                            "Position": {
                              "X": 96.7468,
                              "Y": 269.0095
                            },
                            "Scale": {
                              "ScaleX": 1.0,
                              "ScaleY": 1.0
                            },
                            "CColor": {
                              "R": 26,
                              "G": 26,
                              "B": 26
                            },
                            "IconVisible": false,
                            "PrePosition": {
                              "X": 0.4837,
                              "Y": 0.8967
                            },
                            "PreSize": {
                              "X": 0.23,
                              "Y": 0.1667
                            },
                            "LeftMargin": 73.7468,
                            "RightMargin": 80.2532,
                            "TopMargin": 5.9905,
                            "BottomMargin": 244.0095,
                            "Tag": 120,
                            "ActionTag": -1918713785,
                            "Size": {
                              "X": 46.0,
                              "Y": 50.0
                            },
                            "Name": "Text_1",
                            "ctype": "TextObjectData"
                          },
                          {
                            "DirectionType": "Vertical",
                            "ScrollDirectionType": 0,
                            "ClipAble": false,
                            "BackColorAlpha": 102,
                            "ComboBoxIndex": 1,
                            "SingleColor": {
                              "R": 127,
                              "G": 127,
                              "B": 127
                            },
                            "FirstColor": {
                              "R": 150,
                              "G": 150
                            },
                            "EndColor": {},
                            "ColorVector": {
                              "ScaleY": 1.0
                            },
                            "Scale9Width": 1,
                            "Scale9Height": 1,
                            "TouchEnable": true,
                            "AnchorPoint": {},
                            "Position": {
                              "X": 1.8628,
                              "Y": 71.953
                            },
                            "Scale": {
                              "ScaleX": 1.0,
                              "ScaleY": 0.9369
                            },
                            "CColor": {},
                            "IconVisible": false,
                            "PrePosition": {
                              "X": 0.0093,
                              "Y": 0.2398
                            },
                            "PreSize": {
                              "X": 1.0,
                              "Y": 0.6667
                            },
                            "LeftMargin": 1.8628,
                            "RightMargin": -1.8628,
                            "TopMargin": 28.047,
                            "BottomMargin": 71.953,
                            "Tag": 122,
                            "Children": [
                              {
                                "FontSize": 14,
                                "LabelText": "Best combo:",
                                "FontResource": {
                                  "Type": "Default",
                                  "Path": "",
                                  "Plist": ""
                                },
                                "OutlineColor": {
                                  "G": 0,
                                  "B": 0
                                },
                                "ShadowColor": {
                                  "R": 110,
                                  "G": 110,
                                  "B": 110
                                },
                                "ShadowOffsetX": 2.0,
                                "ShadowOffsetY": -2.0,
                                "AnchorPoint": {
                                  "ScaleX": 0.5,
                                  "ScaleY": 0.5
                                },
                                "Position": {
                                  "X": 39.0,
                                  "Y": 192.0
                                },
                                "Scale": {
                                  "ScaleX": 1.0,
                                  "ScaleY": 1.0
                                },
                                "CColor": {
                                  "R": 26,
                                  "G": 26,
                                  "B": 26
                                },
                                "IconVisible": false,
                                "PrePosition": {
                                  "X": 0.195,
                                  "Y": 0.96
                                },
                                "PreSize": {
                                  "X": 0.39,
                                  "Y": 0.08
                                },
                                "RightMargin": 122.0,
                                "BottomMargin": 184.0,
                                "Tag": 126,
                                "ActionTag": -362181506,
                                "Size": {
                                  "X": 78.0,
                                  "Y": 16.0
                                },
                                "Name": "Text_8_0",
                                "ctype": "TextObjectData"
                              },
                              {
                                "FontSize": 14,
                                "LabelText": "Best total score:\n",
                                "FontResource": {
                                  "Type": "Default",
                                  "Path": "",
                                  "Plist": ""
                                },
                                "OutlineColor": {
                                  "G": 0,
                                  "B": 0
                                },
                                "ShadowColor": {
                                  "R": 110,
                                  "G": 110,
                                  "B": 110
                                },
                                "ShadowOffsetX": 2.0,
                                "ShadowOffsetY": -2.0,
                                "AnchorPoint": {
                                  "ScaleX": 0.5,
                                  "ScaleY": 0.5
                                },
                                "Position": {
                                  "X": 51.0,
                                  "Y": 168.0
                                },
                                "Scale": {
                                  "ScaleX": 1.0,
                                  "ScaleY": 1.0
                                },
                                "CColor": {
                                  "R": 26,
                                  "G": 26,
                                  "B": 26
                                },
                                "IconVisible": false,
                                "PrePosition": {
                                  "X": 0.255,
                                  "Y": 0.84
                                },
                                "PreSize": {
                                  "X": 0.51,
                                  "Y": 0.16
                                },
                                "RightMargin": 98.0,
                                "TopMargin": 16.0,
                                "BottomMargin": 152.0,
                                "Tag": 127,
                                "ActionTag": -259294006,
                                "ZOrder": 1,
                                "Size": {
                                  "X": 102.0,
                                  "Y": 32.0
                                },
                                "Name": "Text_8_1",
                                "ctype": "TextObjectData"
                              },
                              {
                                "FontSize": 14,
                                "LabelText": "Best distance: \n",
                                "FontResource": {
                                  "Type": "Default",
                                  "Path": "",
                                  "Plist": ""
                                },
                                "OutlineColor": {
                                  "G": 0,
                                  "B": 0
                                },
                                "ShadowColor": {
                                  "R": 110,
                                  "G": 110,
                                  "B": 110
                                },
                                "ShadowOffsetX": 2.0,
                                "ShadowOffsetY": -2.0,
                                "AnchorPoint": {
                                  "ScaleX": 0.5,
                                  "ScaleY": 0.5
                                },
                                "Position": {
                                  "X": 46.5,
                                  "Y": 136.0
                                },
                                "Scale": {
                                  "ScaleX": 1.0,
                                  "ScaleY": 1.0
                                },
                                "CColor": {
                                  "R": 26,
                                  "G": 26,
                                  "B": 26
                                },
                                "IconVisible": false,
                                "PrePosition": {
                                  "X": 0.2325,
                                  "Y": 0.68
                                },
                                "PreSize": {
                                  "X": 0.465,
                                  "Y": 0.16
                                },
                                "RightMargin": 107.0,
                                "TopMargin": 48.0,
                                "BottomMargin": 120.0,
                                "Tag": 128,
                                "ActionTag": -1984685108,
                                "ZOrder": 2,
                                "Size": {
                                  "X": 93.0,
                                  "Y": 32.0
                                },
                                "Name": "Text_8_2",
                                "ctype": "TextObjectData"
                              },
                              {
                                "FontSize": 14,
                                "LabelText": "Meters travelled\n",
                                "FontResource": {
                                  "Type": "Default",
                                  "Path": "",
                                  "Plist": ""
                                },
                                "OutlineColor": {
                                  "G": 0,
                                  "B": 0
                                },
                                "ShadowColor": {
                                  "R": 110,
                                  "G": 110,
                                  "B": 110
                                },
                                "ShadowOffsetX": 2.0,
                                "ShadowOffsetY": -2.0,
                                "AnchorPoint": {
                                  "ScaleX": 0.5,
                                  "ScaleY": 0.5
                                },
                                "Position": {
                                  "X": 50.5,
                                  "Y": 104.0
                                },
                                "Scale": {
                                  "ScaleX": 1.0,
                                  "ScaleY": 1.0
                                },
                                "CColor": {
                                  "R": 26,
                                  "G": 26,
                                  "B": 26
                                },
                                "IconVisible": false,
                                "PrePosition": {
                                  "X": 0.2525,
                                  "Y": 0.52
                                },
                                "PreSize": {
                                  "X": 0.505,
                                  "Y": 0.16
                                },
                                "RightMargin": 99.0,
                                "TopMargin": 80.0,
                                "BottomMargin": 88.0,
                                "Tag": 216,
                                "ActionTag": -1300177176,
                                "ZOrder": 3,
                                "Size": {
                                  "X": 101.0,
                                  "Y": 32.0
                                },
                                "Name": "Text_8_0_0",
                                "ctype": "TextObjectData"
                              }
                            ],
                            "ActionTag": 560323841,
                            "Size": {
                              "X": 200.0,
                              "Y": 200.0
                            },
                            "Name": "ListView_1",
                            "ctype": "ListViewObjectData"
                          }
                        ],
                        "ActionTag": -843996971,
                        "Size": {
                          "X": 200.0,
                          "Y": 200.0
                        },
                        "Name": "ScrollView_1",
                        "ctype": "ScrollViewObjectData"
                      }
                    ],
                    "ActionTag": 122236699,
                    "Size": {
                      "X": 200.0,
                      "Y": 200.0
                    },
                    "Alpha": 204,
                    "Name": "Panel_2.1",
                    "ctype": "PanelObjectData"
                  },
                  {
                    "FontSize": 14,
                    "ButtonText": "HighScore",
                    "TextColor": {
                      "R": 65,
                      "G": 65,
                      "B": 70
                    },
                    "NormalFileData": {
                      "Type": "Normal",
                      "Path": "btn/button_artbord-02.png",
                      "Plist": ""
                    },
                    "Scale9Enable": true,
                    "Scale9OriginX": 15,
                    "Scale9OriginY": 11,
                    "Scale9Width": 93,
                    "Scale9Height": 101,
                    "OutlineColor": {
                      "G": 0,
                      "B": 0
                    },
                    "ShadowColor": {
                      "R": 110,
                      "G": 110,
                      "B": 110
                    },
                    "ShadowOffsetX": 2.0,
                    "ShadowOffsetY": -2.0,
                    "TouchEnable": true,
                    "AnchorPoint": {
                      "ScaleX": 0.5,
                      "ScaleY": 0.5
                    },
                    "Position": {
                      "X": 78.3656,
                      "Y": -58.8501
                    },
                    "Scale": {
                      "ScaleX": 0.2089,
                      "ScaleY": 0.2089
                    },
                    "CColor": {},
                    "IconVisible": false,
                    "PrePosition": {
                      "X": 0.3918,
                      "Y": -0.2943
                    },
                    "PreSize": {
                      "X": 0.615,
                      "Y": 0.615
                    },
                    "LeftMargin": 16.8656,
                    "RightMargin": 60.1344,
                    "TopMargin": 197.3501,
                    "BottomMargin": -120.3501,
                    "CallBackType": "Touch",
                    "CallBackName": "btn_highscore",
                    "UserData": "btn_highscore touched",
                    "Tag": 117,
                    "ActionTag": -1059191634,
                    "Size": {
                      "X": 123.0,
                      "Y": 123.0
                    },
                    "Name": "btn_highscore",
                    "ctype": "ButtonObjectData"
                  }
                ],
                "ActionTag": -1612952657,
                "ZOrder": 1,
                "Size": {
                  "X": 200.0,
                  "Y": 200.0
                },
                "Name": "Panel_2",
                "ctype": "PanelObjectData"
              },
              {
                "ClipAble": false,
                "BackColorAlpha": 102,
                "ComboBoxIndex": 1,
                "SingleColor": {
                  "R": 150,
                  "G": 200
                },
                "FirstColor": {
                  "R": 150,
                  "G": 200
                },
                "EndColor": {},
                "ColorVector": {
                  "ScaleY": 1.0
                },
                "Scale9Width": 1,
                "Scale9Height": 1,
                "TouchEnable": true,
                "AnchorPoint": {},
                "Position": {
                  "X": 400.0,
                  "Y": 0.0
                },
                "Scale": {
                  "ScaleX": 1.0,
                  "ScaleY": 1.0
                },
                "CColor": {},
                "IconVisible": false,
                "PrePosition": {
                  "X": 0.5,
                  "Y": 0.0
                },
                "PreSize": {
                  "X": 0.25,
                  "Y": 1.0
                },
                "LeftMargin": 400.0,
                "RightMargin": 200.0,
                "Tag": 124,
                "Children": [
                  {
                    "ClipAble": false,
                    "BackColorAlpha": 102,
                    "ComboBoxIndex": 1,
                    "SingleColor": {
                      "R": 150,
                      "G": 200
                    },
                    "FirstColor": {
                      "R": 150,
                      "G": 200
                    },
                    "EndColor": {},
                    "ColorVector": {
                      "ScaleY": 1.0
                    },
                    "Scale9Width": 1,
                    "Scale9Height": 1,
                    "TouchEnable": true,
                    "AnchorPoint": {},
                    "Position": {
                      "X": 0.0,
                      "Y": 0.0
                    },
                    "Scale": {
                      "ScaleX": 0.9897,
                      "ScaleY": 1.0
                    },
                    "CColor": {},
                    "IconVisible": false,
                    "PrePosition": {
                      "X": 0.0,
                      "Y": 0.0
                    },
                    "PreSize": {
                      "X": 1.0,
                      "Y": 1.0
                    },
                    "Tag": 171,
                    "Children": [
                      {
                        "InnerNodeSize": {
                          "Width": 200,
                          "Height": 300
                        },
                        "ScrollDirectionType": "Vertical",
                        "ClipAble": false,
                        "BackColorAlpha": 76,
                        "ComboBoxIndex": 1,
                        "SingleColor": {
                          "R": 127,
                          "G": 127,
                          "B": 127
                        },
                        "FirstColor": {
                          "G": 150,
                          "B": 100
                        },
                        "EndColor": {},
                        "ColorVector": {
                          "ScaleY": 1.0
                        },
                        "Scale9Width": 1,
                        "Scale9Height": 1,
                        "TouchEnable": true,
                        "AnchorPoint": {},
                        "Position": {
                          "X": 32.5846,
                          "Y": 6.1375
                        },
                        "Scale": {
                          "ScaleX": 0.7235,
                          "ScaleY": 0.9362
                        },
                        "CColor": {},
                        "IconVisible": false,
                        "PrePosition": {
                          "X": 0.1629,
                          "Y": 0.0307
                        },
                        "PreSize": {
                          "X": 1.0,
                          "Y": 1.0
                        },
                        "LeftMargin": 32.5846,
                        "RightMargin": -32.5846,
                        "TopMargin": -6.1375,
                        "BottomMargin": 6.1375,
                        "Tag": 125,
                        "Children": [
                          {
                            "FontSize": 20,
                            "LabelText": "Google Play \nAchievements!\n",
                            "FontResource": {
                              "Type": "Normal",
                              "Path": "font/Milonga-Regular.ttf",
                              "Plist": ""
                            },
                            "OutlineColor": {
                              "G": 0,
                              "B": 0
                            },
                            "ShadowColor": {
                              "R": 110,
                              "G": 110,
                              "B": 110
                            },
                            "ShadowOffsetX": 2.0,
                            "ShadowOffsetY": -2.0,
                            "AnchorPoint": {
                              "ScaleX": 0.5,
                              "ScaleY": 0.5
                            },
                            "Position": {
                              "X": 101.4057,
                              "Y": 258.9113
                            },
                            "Scale": {
                              "ScaleX": 1.0,
                              "ScaleY": 0.9327
                            },
                            "CColor": {
                              "R": 26,
                              "G": 26,
                              "B": 26
                            },
                            "IconVisible": false,
                            "PrePosition": {
                              "X": 0.507,
                              "Y": 0.863
                            },
                            "PreSize": {
                              "X": 0.675,
                              "Y": 0.25
                            },
                            "LeftMargin": 33.9057,
                            "RightMargin": 31.0943,
                            "TopMargin": 3.5887,
                            "BottomMargin": 221.4113,
                            "Tag": 126,
                            "ActionTag": 244607251,
                            "Size": {
                              "X": 135.0,
                              "Y": 75.0
                            },
                            "Name": "Text_1",
                            "ctype": "TextObjectData"
                          },
                          {
                            "CheckedState": true,
                            "NormalBackFileData": {
                              "Type": "Default",
                              "Path": "Default/CheckBox_Normal.png",
                              "Plist": ""
                            },
                            "NodeNormalFileData": {
                              "Type": "Default",
                              "Path": "Default/CheckBoxNode_Normal.png",
                              "Plist": ""
                            },
                            "TouchEnable": true,
                            "AnchorPoint": {
                              "ScaleX": 0.5,
                              "ScaleY": 0.5
                            },
                            "Position": {
                              "X": 110.4952,
                              "Y": 34.7689
                            },
                            "Scale": {
                              "ScaleX": 1.0,
                              "ScaleY": 1.0
                            },
                            "CColor": {},
                            "IconVisible": false,
                            "PrePosition": {
                              "X": 0.5525,
                              "Y": 0.1159
                            },
                            "PreSize": {
                              "X": 0.2,
                              "Y": 0.1333
                            },
                            "LeftMargin": 90.4952,
                            "RightMargin": 69.5048,
                            "TopMargin": 245.2311,
                            "BottomMargin": 14.7689,
                            "Tag": 136,
                            "ActionTag": -2023299716,
                            "Size": {
                              "X": 40.0,
                              "Y": 40.0
                            },
                            "Name": "CheckBox_1",
                            "ctype": "CheckBoxObjectData"
                          }
                        ],
                        "ActionTag": 1735175896,
                        "Size": {
                          "X": 200.0,
                          "Y": 200.0
                        },
                        "Name": "ScrollView_1",
                        "ctype": "ScrollViewObjectData"
                      }
                    ],
                    "ActionTag": -1491598709,
                    "Size": {
                      "X": 200.0,
                      "Y": 200.0
                    },
                    "Name": "Panel_3_1",
                    "ctype": "PanelObjectData"
                  }
                ],
                "ActionTag": 1188127861,
                "ZOrder": 2,
                "Size": {
                  "X": 200.0,
                  "Y": 200.0
                },
                "Name": "Panel_3",
                "ctype": "PanelObjectData"
              },
              {
                "ClipAble": false,
                "BackColorAlpha": 75,
                "ComboBoxIndex": 1,
                "SingleColor": {
                  "R": 167,
                  "G": 190,
                  "B": 215
                },
                "FirstColor": {
                  "R": 150,
                  "G": 200
                },
                "EndColor": {},
                "ColorVector": {
                  "ScaleY": 1.0
                },
                "Scale9Width": 1,
                "Scale9Height": 1,
                "TouchEnable": true,
                "AnchorPoint": {},
                "Position": {
                  "X": 600.0,
                  "Y": 0.0
                },
                "Scale": {
                  "ScaleX": 1.0,
                  "ScaleY": 1.0
                },
                "CColor": {},
                "IconVisible": false,
                "PrePosition": {
                  "X": 0.75,
                  "Y": 0.0
                },
                "PreSize": {
                  "X": 0.25,
                  "Y": 1.0
                },
                "LeftMargin": 600.0,
                "Tag": 254,
                "Children": [
                  {
                    "FontSize": 20,
                    "LabelText": "Settings\n",
                    "FontResource": {
                      "Type": "Normal",
                      "Path": "font/Milonga-Regular.ttf",
                      "Plist": ""
                    },
                    "HorizontalAlignmentType": "HT_Center",
                    "OutlineColor": {
                      "R": 26,
                      "G": 26,
                      "B": 26
                    },
                    "OutlineEnabled": true,
                    "ShadowColor": {
                      "R": 110,
                      "G": 110,
                      "B": 110
                    },
                    "ShadowOffsetX": 2.0,
                    "ShadowOffsetY": -2.0,
                    "AnchorPoint": {
                      "ScaleX": 0.5,
                      "ScaleY": 0.5
                    },
                    "Position": {
                      "X": 108.1066,
                      "Y": 162.872
                    },
                    "Scale": {
                      "ScaleX": 1.0,
                      "ScaleY": 1.0
                    },
                    "CColor": {
                      "R": 26,
                      "G": 26,
                      "B": 26
                    },
                    "IconVisible": false,
                    "PrePosition": {
                      "X": 0.5405,
                      "Y": 0.8144
                    },
                    "PreSize": {
                      "X": 0.385,
                      "Y": 0.27
                    },
                    "LeftMargin": 69.6066,
                    "RightMargin": 53.3934,
                    "TopMargin": 10.128,
                    "BottomMargin": 135.872,
                    "Tag": 256,
                    "ActionTag": -1192445163,
                    "Size": {
                      "X": 77.0,
                      "Y": 54.0
                    },
                    "Name": "Text_1",
                    "ctype": "TextObjectData"
                  },
                  {
                    "ClipAble": false,
                    "BackColorAlpha": 102,
                    "SingleColor": {
                      "R": 167,
                      "G": 190,
                      "B": 215
                    },
                    "FirstColor": {
                      "R": 150,
                      "G": 200
                    },
                    "EndColor": {},
                    "ColorVector": {
                      "ScaleY": 1.0
                    },
                    "Scale9Width": 1,
                    "Scale9Height": 1,
                    "TouchEnable": true,
                    "AnchorPoint": {},
                    "Position": {
                      "X": 46.7411,
                      "Y": 26.6141
                    },
                    "Scale": {
                      "ScaleX": 0.5869,
                      "ScaleY": 0.5791
                    },
                    "CColor": {
                      "R": 167,
                      "G": 190,
                      "B": 215
                    },
                    "IconVisible": false,
                    "PrePosition": {
                      "X": 0.2337,
                      "Y": 0.1331
                    },
                    "PreSize": {
                      "X": 1.0,
                      "Y": 1.0
                    },
                    "LeftMargin": 46.7411,
                    "RightMargin": -46.7411,
                    "TopMargin": -26.6141,
                    "BottomMargin": 26.6141,
                    "Tag": 316,
                    "Children": [
                      {
                        "FontSize": 14,
                        "LabelText": "Sounds \n",
                        "FontResource": {
                          "Type": "Normal",
                          "Path": "font/Milonga-Regular.ttf",
                          "Plist": ""
                        },
                        "OutlineColor": {
                          "G": 0,
                          "B": 0
                        },
                        "ShadowColor": {
                          "R": 110,
                          "G": 110,
                          "B": 110
                        },
                        "ShadowOffsetX": 2.0,
                        "ShadowOffsetY": -2.0,
                        "AnchorPoint": {
                          "ScaleX": 0.5,
                          "ScaleY": 0.5
                        },
                        "Position": {
                          "X": 38.712,
                          "Y": 143.1419
                        },
                        "Scale": {
                          "ScaleX": 1.1442,
                          "ScaleY": 1.4738
                        },
                        "CColor": {
                          "R": 26,
                          "G": 26,
                          "B": 26
                        },
                        "IconVisible": false,
                        "PrePosition": {
                          "X": 0.1936,
                          "Y": 0.7157
                        },
                        "PreSize": {
                          "X": 0.25,
                          "Y": 0.18
                        },
                        "LeftMargin": 13.712,
                        "RightMargin": 136.288,
                        "TopMargin": 38.8581,
                        "BottomMargin": 125.1419,
                        "Tag": 317,
                        "ActionTag": -1814416460,
                        "Size": {
                          "X": 50.0,
                          "Y": 36.0
                        },
                        "Name": "label_sound",
                        "ctype": "TextObjectData"
                      },
                      {
                        "FontSize": 14,
                        "LabelText": "Music\n",
                        "FontResource": {
                          "Type": "Normal",
                          "Path": "font/Milonga-Regular.ttf",
                          "Plist": ""
                        },
                        "OutlineColor": {
                          "G": 0,
                          "B": 0
                        },
                        "ShadowColor": {
                          "R": 110,
                          "G": 110,
                          "B": 110
                        },
                        "ShadowOffsetX": 2.0,
                        "ShadowOffsetY": -2.0,
                        "AnchorPoint": {
                          "ScaleX": 0.5,
                          "ScaleY": 0.5
                        },
                        "Position": {
                          "X": 33.0791,
                          "Y": 86.5799
                        },
                        "Scale": {
                          "ScaleX": 1.1442,
                          "ScaleY": 1.4738
                        },
                        "CColor": {
                          "R": 26,
                          "G": 26,
                          "B": 26
                        },
                        "IconVisible": false,
                        "PrePosition": {
                          "X": 0.1654,
                          "Y": 0.4329
                        },
                        "PreSize": {
                          "X": 0.205,
                          "Y": 0.18
                        },
                        "LeftMargin": 12.5791,
                        "RightMargin": 146.4209,
                        "TopMargin": 95.4201,
                        "BottomMargin": 68.5799,
                        "Tag": 318,
                        "ActionTag": 1792841045,
                        "Size": {
                          "X": 41.0,
                          "Y": 36.0
                        },
                        "Name": "label_music",
                        "ctype": "TextObjectData"
                      },
                      {
                        "FontSize": 14,
                        "LabelText": "Difficulty\n",
                        "FontResource": {
                          "Type": "Normal",
                          "Path": "font/Milonga-Regular.ttf",
                          "Plist": ""
                        },
                        "OutlineColor": {
                          "G": 0,
                          "B": 0
                        },
                        "ShadowColor": {
                          "R": 110,
                          "G": 110,
                          "B": 110
                        },
                        "ShadowOffsetX": 2.0,
                        "ShadowOffsetY": -2.0,
                        "AnchorPoint": {
                          "ScaleX": 0.5,
                          "ScaleY": 0.5
                        },
                        "Position": {
                          "X": 45.8395,
                          "Y": 23.0634
                        },
                        "Scale": {
                          "ScaleX": 1.1442,
                          "ScaleY": 1.4738
                        },
                        "CColor": {
                          "R": 26,
                          "G": 26,
                          "B": 26
                        },
                        "IconVisible": false,
                        "PrePosition": {
                          "X": 0.2292,
                          "Y": 0.1153
                        },
                        "PreSize": {
                          "X": 0.315,
                          "Y": 0.18
                        },
                        "LeftMargin": 14.3395,
                        "RightMargin": 122.6605,
                        "TopMargin": 158.9366,
                        "BottomMargin": 5.0634,
                        "Tag": 319,
                        "ActionTag": 89338014,
                        "Size": {
                          "X": 63.0,
                          "Y": 36.0
                        },
                        "Name": "label_difficulty",
                        "ctype": "TextObjectData"
                      },
                      {
                        "BallPressedData": {
                          "Type": "Default",
                          "Path": "Default/SliderNode_Press.png",
                          "Plist": ""
                        },
                        "PercentInfo": 50,
                        "TouchEnable": true,
                        "AnchorPoint": {
                          "ScaleX": 0.5,
                          "ScaleY": 0.5
                        },
                        "Position": {
                          "X": 132.2632,
                          "Y": 150.9834
                        },
                        "Scale": {
                          "ScaleX": 0.426,
                          "ScaleY": 2.1599
                        },
                        "CColor": {
                          "R": 77,
                          "G": 77,
                          "B": 77
                        },
                        "IconVisible": false,
                        "PrePosition": {
                          "X": 0.6613,
                          "Y": 0.7549
                        },
                        "PreSize": {
                          "X": 1.37,
                          "Y": 0.09
                        },
                        "LeftMargin": -4.7368,
                        "RightMargin": -69.2632,
                        "TopMargin": 40.0166,
                        "BottomMargin": 141.9834,
                        "Tag": 321,
                        "ActionTag": -473415993,
                        "Size": {
                          "X": 274.0,
                          "Y": 18.0
                        },
                        "Name": "Slider_sounds",
                        "ctype": "SliderObjectData"
                      },
                      {
                        "BackGroundData": {
                          "Type": "Default",
                          "Path": "Default/Slider_Back.png",
                          "Plist": ""
                        },
                        "ProgressBarData": {
                          "Type": "Default",
                          "Path": "Default/Slider_PressBar.png",
                          "Plist": ""
                        },
                        "BallNormalData": {
                          "Type": "Default",
                          "Path": "Default/SliderNode_Normal.png",
                          "Plist": ""
                        },
                        "PercentInfo": 50,
                        "TouchEnable": true,
                        "AnchorPoint": {
                          "ScaleX": 0.4549,
                          "ScaleY": 0.321
                        },
                        "Position": {
                          "X": 116.2116,
                          "Y": 90.5294
                        },
                        "Scale": {
                          "ScaleX": 0.3711,
                          "ScaleY": 1.3779
                        },
                        "CColor": {
                          "R": 26,
                          "G": 26,
                          "B": 26
                        },
                        "IconVisible": false,
                        "PrePosition": {
                          "X": 0.5811,
                          "Y": 0.4526
                        },
                        "PreSize": {
                          "X": 1.0,
                          "Y": 0.07
                        },
                        "LeftMargin": 25.2277,
                        "RightMargin": -25.2277,
                        "TopMargin": 99.9648,
                        "BottomMargin": 86.0352,
                        "Tag": 320,
                        "ActionTag": 367948310,
                        "Size": {
                          "X": 200.0,
                          "Y": 14.0
                        },
                        "Name": "Slider_music",
                        "ctype": "SliderObjectData"
                      }
                    ],
                    "ActionTag": -1058758347,
                    "Size": {
                      "X": 200.0,
                      "Y": 200.0
                    },
                    "Name": "Panel_4.1",
                    "ctype": "PanelObjectData"
                  }
                ],
                "ActionTag": 1183969127,
                "ZOrder": 3,
                "Size": {
                  "X": 200.0,
                  "Y": 200.0
                },
                "Alpha": 204,
                "Name": "Panel_4",
                "ctype": "PanelObjectData"
              }
            ],
            "ActionTag": 301840654,
            "Size": {
              "X": 200.0,
              "Y": 200.0
            },
            "Name": "PageView_1",
            "ctype": "PageViewObjectData"
          },
          {
            "FontSize": 14,
            "ButtonText": "Back",
            "TextColor": {
              "R": 65,
              "G": 65,
              "B": 70
            },
            "NormalFileData": {
              "Type": "Normal",
              "Path": "btn/button_artbord-03.png",
              "Plist": ""
            },
            "Scale9Enable": true,
            "Scale9OriginX": 15,
            "Scale9OriginY": 11,
            "Scale9Width": 93,
            "Scale9Height": 101,
            "OutlineColor": {
              "G": 0,
              "B": 0
            },
            "ShadowColor": {
              "R": 110,
              "G": 110,
              "B": 110
            },
            "ShadowOffsetX": 2.0,
            "ShadowOffsetY": -2.0,
            "TouchEnable": true,
            "AnchorPoint": {
              "ScaleX": 0.459,
              "ScaleY": 0.5
            },
            "Position": {
              "X": 147.1857,
              "Y": 138.0258
            },
            "Scale": {
              "ScaleX": 1.2963,
              "ScaleY": 1.1896
            },
            "CColor": {},
            "IconVisible": false,
            "PrePosition": {
              "X": 0.0767,
              "Y": 0.1278
            },
            "PreSize": {
              "X": 0.0641,
              "Y": 0.1139
            },
            "LeftMargin": 90.7287,
            "RightMargin": 1706.2712,
            "TopMargin": 880.4742,
            "BottomMargin": 76.5258,
            "CallBackType": "Touch",
            "CallBackName": "btn_back",
            "UserData": "btn_back touched",
            "Tag": 38,
            "ActionTag": 1207958050,
            "Size": {
              "X": 123.0,
              "Y": 123.0
            },
            "Name": "btn_back",
            "ctype": "ButtonObjectData"
          }
        ],
        "Size": {
          "X": 1920.0,
          "Y": 1080.0
        },
        "Name": "PageViewLayer",
        "ctype": "LayerObjectData"
      },
      "UsedResources": [
        "btn/button_artbord-02.png",
        "btn/button_artbord-03.png",
        "Default/CheckBox_Normal.png",
        "Default/CheckBoxNode_Normal.png",
        "Default/Slider_Back.png",
        "Default/Slider_PressBar.png",
        "Default/SliderNode_Normal.png",
        "Default/SliderNode_Press.png",
        "environment1/BG_1.png",
        "font/Milonga-Regular.ttf"
      ],
      "ctype": "GameFileData"
    }
  },
  "Type": "Layer"
}