{
  "ID": "845303a0-0f2c-4991-99d5-4ee0757bf0bb",
  "Version": "3.10.0.0",
  "Name": "PageViewScene",
  "Content": {
    "Content": {
      "Animation": {
        "Duration": 0,
        "Speed": 1.0,
        "Timelines": [],
        "ctype": "TimelineActionData"
      },
      "AnimationList": [],
      "ObjectData": {
        "Tag": 9,
        "Children": [
          {
            "FileData": {
              "Type": "Normal",
              "Path": "PageViewLayer.json",
              "Plist": ""
            },
            "StretchWidthEnable": false,
            "StretchHeightEnable": false,
            "InnerActionSpeed": 1.0,
            "AnchorPoint": {},
            "Position": {
              "X": 2.787,
              "Y": -2.7805
            },
            "Scale": {
              "ScaleX": 1.0,
              "ScaleY": 1.0
            },
            "CColor": {},
            "IconVisible": true,
            "PrePosition": {
              "X": 0.0015,
              "Y": -0.0026
            },
            "PreSize": {
              "X": 1.0,
              "Y": 1.0
            },
            "LeftMargin": 2.787,
            "RightMargin": -2.787,
            "TopMargin": 2.7805,
            "BottomMargin": -2.7805,
            "UserData": "PageViewScene!",
            "Tag": 110,
            "ActionTag": -1362862580,
            "Size": {
              "X": 1920.0,
              "Y": 1080.0
            },
            "Name": "FileNode_9",
            "ctype": "ProjectNodeObjectData"
          }
        ],
        "Size": {
          "X": 1920.0,
          "Y": 1080.0
        },
        "Name": "Scene",
        "ctype": "SingleNodeObjectData"
      },
      "UsedResources": [
        "PageViewLayer.json"
      ],
      "ctype": "GameFileData"
    }
  },
  "Type": "Scene"
}