{
  "ID": "68bb723a-51bf-4aa2-b62e-1c674d1c3d08",
  "Version": "3.10.0.0",
  "Name": "PlayScene",
  "Content": {
    "Content": {
      "Animation": {
        "Duration": 0,
        "Speed": 1.0,
        "Timelines": [],
        "ctype": "TimelineActionData"
      },
      "AnimationList": [
        {
          "StartIndex": 0,
          "EndIndex": 250,
          "Name": "Die_animation0",
          "ctype": "AnimationInfoData"
        },
        {
          "StartIndex": 205,
          "EndIndex": 250,
          "Name": "Walk",
          "ctype": "AnimationInfoData"
        },
        {
          "StartIndex": 165,
          "EndIndex": 185,
          "Name": "Slide",
          "ctype": "AnimationInfoData"
        },
        {
          "StartIndex": 135,
          "EndIndex": 165,
          "Name": "Shoot",
          "ctype": "AnimationInfoData"
        },
        {
          "StartIndex": 105,
          "EndIndex": 135,
          "Name": "Run",
          "ctype": "AnimationInfoData"
        }
      ],
      "ObjectData": {
        "Tag": 4,
        "Size": {
          "X": 800.0,
          "Y": 480.0
        },
        "Name": "Scene",
        "ctype": "SingleNodeObjectData"
      },
      "UsedResources": [],
      "ctype": "GameFileData"
    }
  },
  "Type": "Scene"
}