{
  "ID": "9ea2642a-543c-4541-b052-9a88918f6dc1",
  "Version": "3.10.0.0",
  "Name": "Stats",
  "Content": {
    "Content": {
      "Animation": {
        "Duration": 0,
        "Speed": 1.0,
        "Timelines": [],
        "ctype": "TimelineActionData"
      },
      "AnimationList": [],
      "ObjectData": {
        "Tag": 12,
        "Children": [
          {
            "FontSize": 20,
            "LabelText": "Stats",
            "OutlineColor": {
              "G": 0,
              "B": 0
            },
            "ShadowColor": {
              "R": 110,
              "G": 110,
              "B": 110
            },
            "ShadowOffsetX": 2.0,
            "ShadowOffsetY": -2.0,
            "AnchorPoint": {
              "ScaleX": 0.5,
              "ScaleY": 1.0
            },
            "Position": {
              "X": 915.6801,
              "Y": 995.0132
            },
            "Scale": {
              "ScaleX": 11.447,
              "ScaleY": 9.8006
            },
            "CColor": {},
            "IconVisible": false,
            "PrePosition": {
              "X": 0.4769,
              "Y": 0.9213
            },
            "PreSize": {
              "X": 0.024,
              "Y": 0.0213
            },
            "LeftMargin": 892.6801,
            "RightMargin": 981.3199,
            "TopMargin": 84.9868,
            "BottomMargin": 972.0132,
            "Tag": 64,
            "ActionTag": -193557268,
            "Size": {
              "X": 46.0,
              "Y": 23.0
            },
            "Name": "Text_1",
            "ctype": "TextObjectData"
          },
          {
            "FileData": {
              "Type": "Default",
              "Path": "Default/ImageFile.png",
              "Plist": ""
            },
            "Scale9Width": 46,
            "Scale9Height": 46,
            "TouchEnable": true,
            "AnchorPoint": {
              "ScaleX": 0.5,
              "ScaleY": 0.5
            },
            "Position": {
              "X": 1159.9995,
              "Y": 429.9999
            },
            "Scale": {
              "ScaleX": 1.0,
              "ScaleY": 1.0
            },
            "CColor": {},
            "IconVisible": false,
            "PrePosition": {
              "X": 0.6042,
              "Y": 0.3981
            },
            "PreSize": {
              "X": 0.024,
              "Y": 0.0426
            },
            "LeftMargin": 1136.9995,
            "RightMargin": 737.0005,
            "TopMargin": 627.0001,
            "BottomMargin": 406.9999,
            "Tag": 65,
            "ActionTag": 974330124,
            "Size": {
              "X": 46.0,
              "Y": 46.0
            },
            "Name": "Image_1",
            "ctype": "ImageViewObjectData"
          }
        ],
        "Size": {
          "X": 1920.0,
          "Y": 1080.0
        },
        "Name": "Layer",
        "ctype": "LayerObjectData"
      },
      "UsedResources": [
        "Default/ImageFile.png"
      ],
      "ctype": "GameFileData"
    }
  },
  "Type": "Layer"
}