{
  "ID": "2683151f-d310-4c83-9041-c689c4fbf1d6",
  "Version": "3.10.0.0",
  "Name": "MenuScene",
  "Content": {
    "Content": {
      "Animation": {
        "Duration": 600,
        "Speed": 1.0,
        "Timelines": [
          {
            "ActionTag": 892781505,
            "Property": "Position",
            "Frames": [
              {
                "X": 1959.5939,
                "Y": 537.4327,
                "FrameIndex": 0,
                "EasingData": {
                  "Type": 10
                },
                "ctype": "PointFrameData"
              },
              {
                "X": -35.0168,
                "Y": 534.2815,
                "FrameIndex": 600,
                "EasingData": {
                  "Type": 6
                },
                "ctype": "PointFrameData"
              }
            ],
            "ctype": "TimelineData"
          },
          {
            "ActionTag": -1934218977,
            "Property": "Position",
            "Frames": [
              {
                "X": -50.0,
                "Y": 85.0348,
                "FrameIndex": 0,
                "EasingData": {
                  "Type": 0
                },
                "ctype": "PointFrameData"
              },
              {
                "X": 2000.0,
                "Y": 85.0348,
                "FrameIndex": 600,
                "EasingData": {
                  "Type": 1
                },
                "ctype": "PointFrameData"
              }
            ],
            "ctype": "TimelineData"
          },
          {
            "ActionTag": -1934218977,
            "Property": "FileData",
            "Frames": [
              {
                "TextureFile": {
                  "Type": "PlistSubImage",
                  "Path": "Run/Run_000.png",
                  "Plist": "Hero.Bruiser/0.plist"
                },
                "FrameIndex": 0,
                "Tween": false,
                "ctype": "TextureFrameData"
              },
              {
                "TextureFile": {
                  "Type": "PlistSubImage",
                  "Path": "Run/Run_001.png",
                  "Plist": "Hero.Bruiser/0.plist"
                },
                "FrameIndex": 5,
                "Tween": false,
                "ctype": "TextureFrameData"
              },
              {
                "TextureFile": {
                  "Type": "PlistSubImage",
                  "Path": "Run/Run_002.png",
                  "Plist": "Hero.Bruiser/0.plist"
                },
                "FrameIndex": 10,
                "Tween": false,
                "ctype": "TextureFrameData"
              },
              {
                "TextureFile": {
                  "Type": "PlistSubImage",
                  "Path": "Run/Run_003.png",
                  "Plist": "Hero.Bruiser/0.plist"
                },
                "FrameIndex": 15,
                "Tween": false,
                "ctype": "TextureFrameData"
              },
              {
                "TextureFile": {
                  "Type": "PlistSubImage",
                  "Path": "Run/Run_004.png",
                  "Plist": "Hero.Bruiser/0.plist"
                },
                "FrameIndex": 20,
                "Tween": false,
                "ctype": "TextureFrameData"
              },
              {
                "TextureFile": {
                  "Type": "PlistSubImage",
                  "Path": "Run/Run_005.png",
                  "Plist": "Hero.Bruiser/0.plist"
                },
                "FrameIndex": 25,
                "Tween": false,
                "ctype": "TextureFrameData"
              },
              {
                "TextureFile": {
                  "Type": "PlistSubImage",
                  "Path": "Run/Run_000.png",
                  "Plist": "Hero.Bruiser/0.plist"
                },
                "FrameIndex": 30,
                "Tween": false,
                "ctype": "TextureFrameData"
              },
              {
                "TextureFile": {
                  "Type": "PlistSubImage",
                  "Path": "Run/Run_001.png",
                  "Plist": "Hero.Bruiser/0.plist"
                },
                "FrameIndex": 35,
                "Tween": false,
                "ctype": "TextureFrameData"
              },
              {
                "TextureFile": {
                  "Type": "PlistSubImage",
                  "Path": "Run/Run_002.png",
                  "Plist": "Hero.Bruiser/0.plist"
                },
                "FrameIndex": 40,
                "Tween": false,
                "ctype": "TextureFrameData"
              },
              {
                "TextureFile": {
                  "Type": "PlistSubImage",
                  "Path": "Run/Run_003.png",
                  "Plist": "Hero.Bruiser/0.plist"
                },
                "FrameIndex": 45,
                "Tween": false,
                "ctype": "TextureFrameData"
              },
              {
                "TextureFile": {
                  "Type": "PlistSubImage",
                  "Path": "Run/Run_004.png",
                  "Plist": "Hero.Bruiser/0.plist"
                },
                "FrameIndex": 50,
                "Tween": false,
                "ctype": "TextureFrameData"
              },
              {
                "TextureFile": {
                  "Type": "PlistSubImage",
                  "Path": "Run/Run_005.png",
                  "Plist": "Hero.Bruiser/0.plist"
                },
                "FrameIndex": 55,
                "Tween": false,
                "ctype": "TextureFrameData"
              },
              {
                "TextureFile": {
                  "Type": "PlistSubImage",
                  "Path": "Run/Run_000.png",
                  "Plist": "Hero.Bruiser/0.plist"
                },
                "FrameIndex": 60,
                "Tween": false,
                "ctype": "TextureFrameData"
              },
              {
                "TextureFile": {
                  "Type": "PlistSubImage",
                  "Path": "Run/Run_001.png",
                  "Plist": "Hero.Bruiser/0.plist"
                },
                "FrameIndex": 65,
                "Tween": false,
                "ctype": "TextureFrameData"
              },
              {
                "TextureFile": {
                  "Type": "PlistSubImage",
                  "Path": "Run/Run_002.png",
                  "Plist": "Hero.Bruiser/0.plist"
                },
                "FrameIndex": 70,
                "Tween": false,
                "ctype": "TextureFrameData"
              },
              {
                "TextureFile": {
                  "Type": "PlistSubImage",
                  "Path": "Run/Run_003.png",
                  "Plist": "Hero.Bruiser/0.plist"
                },
                "FrameIndex": 75,
                "Tween": false,
                "ctype": "TextureFrameData"
              },
              {
                "TextureFile": {
                  "Type": "PlistSubImage",
                  "Path": "Run/Run_004.png",
                  "Plist": "Hero.Bruiser/0.plist"
                },
                "FrameIndex": 80,
                "Tween": false,
                "ctype": "TextureFrameData"
              },
              {
                "TextureFile": {
                  "Type": "PlistSubImage",
                  "Path": "Run/Run_005.png",
                  "Plist": "Hero.Bruiser/0.plist"
                },
                "FrameIndex": 85,
                "Tween": false,
                "ctype": "TextureFrameData"
              },
              {
                "TextureFile": {
                  "Type": "PlistSubImage",
                  "Path": "Run/Run_000.png",
                  "Plist": "Hero.Bruiser/0.plist"
                },
                "FrameIndex": 90,
                "Tween": false,
                "ctype": "TextureFrameData"
              },
              {
                "TextureFile": {
                  "Type": "PlistSubImage",
                  "Path": "Run/Run_001.png",
                  "Plist": "Hero.Bruiser/0.plist"
                },
                "FrameIndex": 95,
                "Tween": false,
                "ctype": "TextureFrameData"
              },
              {
                "TextureFile": {
                  "Type": "PlistSubImage",
                  "Path": "Run/Run_002.png",
                  "Plist": "Hero.Bruiser/0.plist"
                },
                "FrameIndex": 100,
                "Tween": false,
                "ctype": "TextureFrameData"
              },
              {
                "TextureFile": {
                  "Type": "PlistSubImage",
                  "Path": "Run/Run_003.png",
                  "Plist": "Hero.Bruiser/0.plist"
                },
                "FrameIndex": 105,
                "Tween": false,
                "ctype": "TextureFrameData"
              },
              {
                "TextureFile": {
                  "Type": "PlistSubImage",
                  "Path": "Run/Run_004.png",
                  "Plist": "Hero.Bruiser/0.plist"
                },
                "FrameIndex": 110,
                "Tween": false,
                "ctype": "TextureFrameData"
              },
              {
                "TextureFile": {
                  "Type": "PlistSubImage",
                  "Path": "Run/Run_005.png",
                  "Plist": "Hero.Bruiser/0.plist"
                },
                "FrameIndex": 115,
                "Tween": false,
                "ctype": "TextureFrameData"
              },
              {
                "TextureFile": {
                  "Type": "PlistSubImage",
                  "Path": "Run/Run_000.png",
                  "Plist": "Hero.Bruiser/0.plist"
                },
                "FrameIndex": 120,
                "Tween": false,
                "ctype": "TextureFrameData"
              },
              {
                "TextureFile": {
                  "Type": "PlistSubImage",
                  "Path": "Run/Run_001.png",
                  "Plist": "Hero.Bruiser/0.plist"
                },
                "FrameIndex": 125,
                "Tween": false,
                "ctype": "TextureFrameData"
              },
              {
                "TextureFile": {
                  "Type": "PlistSubImage",
                  "Path": "Run/Run_002.png",
                  "Plist": "Hero.Bruiser/0.plist"
                },
                "FrameIndex": 130,
                "Tween": false,
                "ctype": "TextureFrameData"
              },
              {
                "TextureFile": {
                  "Type": "PlistSubImage",
                  "Path": "Run/Run_003.png",
                  "Plist": "Hero.Bruiser/0.plist"
                },
                "FrameIndex": 135,
                "Tween": false,
                "ctype": "TextureFrameData"
              },
              {
                "TextureFile": {
                  "Type": "PlistSubImage",
                  "Path": "Run/Run_004.png",
                  "Plist": "Hero.Bruiser/0.plist"
                },
                "FrameIndex": 140,
                "Tween": false,
                "ctype": "TextureFrameData"
              },
              {
                "TextureFile": {
                  "Type": "PlistSubImage",
                  "Path": "Run/Run_005.png",
                  "Plist": "Hero.Bruiser/0.plist"
                },
                "FrameIndex": 145,
                "Tween": false,
                "ctype": "TextureFrameData"
              },
              {
                "TextureFile": {
                  "Type": "PlistSubImage",
                  "Path": "Run/Run_000.png",
                  "Plist": "Hero.Bruiser/0.plist"
                },
                "FrameIndex": 150,
                "Tween": false,
                "ctype": "TextureFrameData"
              },
              {
                "TextureFile": {
                  "Type": "PlistSubImage",
                  "Path": "Run/Run_001.png",
                  "Plist": "Hero.Bruiser/0.plist"
                },
                "FrameIndex": 155,
                "Tween": false,
                "ctype": "TextureFrameData"
              },
              {
                "TextureFile": {
                  "Type": "PlistSubImage",
                  "Path": "Run/Run_002.png",
                  "Plist": "Hero.Bruiser/0.plist"
                },
                "FrameIndex": 160,
                "Tween": false,
                "ctype": "TextureFrameData"
              },
              {
                "TextureFile": {
                  "Type": "PlistSubImage",
                  "Path": "Run/Run_003.png",
                  "Plist": "Hero.Bruiser/0.plist"
                },
                "FrameIndex": 165,
                "Tween": false,
                "ctype": "TextureFrameData"
              },
              {
                "TextureFile": {
                  "Type": "PlistSubImage",
                  "Path": "Run/Run_004.png",
                  "Plist": "Hero.Bruiser/0.plist"
                },
                "FrameIndex": 170,
                "Tween": false,
                "ctype": "TextureFrameData"
              },
              {
                "TextureFile": {
                  "Type": "PlistSubImage",
                  "Path": "Run/Run_005.png",
                  "Plist": "Hero.Bruiser/0.plist"
                },
                "FrameIndex": 175,
                "Tween": false,
                "ctype": "TextureFrameData"
              },
              {
                "TextureFile": {
                  "Type": "PlistSubImage",
                  "Path": "Run/Run_000.png",
                  "Plist": "Hero.Bruiser/0.plist"
                },
                "FrameIndex": 180,
                "Tween": false,
                "ctype": "TextureFrameData"
              },
              {
                "TextureFile": {
                  "Type": "PlistSubImage",
                  "Path": "Run/Run_001.png",
                  "Plist": "Hero.Bruiser/0.plist"
                },
                "FrameIndex": 185,
                "Tween": false,
                "ctype": "TextureFrameData"
              },
              {
                "TextureFile": {
                  "Type": "PlistSubImage",
                  "Path": "Run/Run_002.png",
                  "Plist": "Hero.Bruiser/0.plist"
                },
                "FrameIndex": 190,
                "Tween": false,
                "ctype": "TextureFrameData"
              },
              {
                "TextureFile": {
                  "Type": "PlistSubImage",
                  "Path": "Run/Run_003.png",
                  "Plist": "Hero.Bruiser/0.plist"
                },
                "FrameIndex": 195,
                "Tween": false,
                "ctype": "TextureFrameData"
              },
              {
                "TextureFile": {
                  "Type": "PlistSubImage",
                  "Path": "Run/Run_004.png",
                  "Plist": "Hero.Bruiser/0.plist"
                },
                "FrameIndex": 200,
                "Tween": false,
                "ctype": "TextureFrameData"
              },
              {
                "TextureFile": {
                  "Type": "PlistSubImage",
                  "Path": "Run/Run_005.png",
                  "Plist": "Hero.Bruiser/0.plist"
                },
                "FrameIndex": 205,
                "Tween": false,
                "ctype": "TextureFrameData"
              },
              {
                "TextureFile": {
                  "Type": "PlistSubImage",
                  "Path": "Run/Run_000.png",
                  "Plist": "Hero.Bruiser/0.plist"
                },
                "FrameIndex": 210,
                "Tween": false,
                "ctype": "TextureFrameData"
              },
              {
                "TextureFile": {
                  "Type": "PlistSubImage",
                  "Path": "Run/Run_001.png",
                  "Plist": "Hero.Bruiser/0.plist"
                },
                "FrameIndex": 215,
                "Tween": false,
                "ctype": "TextureFrameData"
              },
              {
                "TextureFile": {
                  "Type": "PlistSubImage",
                  "Path": "Run/Run_002.png",
                  "Plist": "Hero.Bruiser/0.plist"
                },
                "FrameIndex": 220,
                "Tween": false,
                "ctype": "TextureFrameData"
              },
              {
                "TextureFile": {
                  "Type": "PlistSubImage",
                  "Path": "Run/Run_003.png",
                  "Plist": "Hero.Bruiser/0.plist"
                },
                "FrameIndex": 225,
                "Tween": false,
                "ctype": "TextureFrameData"
              },
              {
                "TextureFile": {
                  "Type": "PlistSubImage",
                  "Path": "Run/Run_004.png",
                  "Plist": "Hero.Bruiser/0.plist"
                },
                "FrameIndex": 230,
                "Tween": false,
                "ctype": "TextureFrameData"
              },
              {
                "TextureFile": {
                  "Type": "PlistSubImage",
                  "Path": "Run/Run_005.png",
                  "Plist": "Hero.Bruiser/0.plist"
                },
                "FrameIndex": 235,
                "Tween": false,
                "ctype": "TextureFrameData"
              },
              {
                "TextureFile": {
                  "Type": "PlistSubImage",
                  "Path": "Run/Run_000.png",
                  "Plist": "Hero.Bruiser/0.plist"
                },
                "FrameIndex": 240,
                "Tween": false,
                "ctype": "TextureFrameData"
              },
              {
                "TextureFile": {
                  "Type": "PlistSubImage",
                  "Path": "Run/Run_001.png",
                  "Plist": "Hero.Bruiser/0.plist"
                },
                "FrameIndex": 245,
                "Tween": false,
                "ctype": "TextureFrameData"
              },
              {
                "TextureFile": {
                  "Type": "PlistSubImage",
                  "Path": "Run/Run_002.png",
                  "Plist": "Hero.Bruiser/0.plist"
                },
                "FrameIndex": 250,
                "Tween": false,
                "ctype": "TextureFrameData"
              },
              {
                "TextureFile": {
                  "Type": "PlistSubImage",
                  "Path": "Run/Run_003.png",
                  "Plist": "Hero.Bruiser/0.plist"
                },
                "FrameIndex": 255,
                "Tween": false,
                "ctype": "TextureFrameData"
              },
              {
                "TextureFile": {
                  "Type": "PlistSubImage",
                  "Path": "Run/Run_004.png",
                  "Plist": "Hero.Bruiser/0.plist"
                },
                "FrameIndex": 260,
                "Tween": false,
                "ctype": "TextureFrameData"
              },
              {
                "TextureFile": {
                  "Type": "PlistSubImage",
                  "Path": "Run/Run_005.png",
                  "Plist": "Hero.Bruiser/0.plist"
                },
                "FrameIndex": 265,
                "Tween": false,
                "ctype": "TextureFrameData"
              },
              {
                "TextureFile": {
                  "Type": "PlistSubImage",
                  "Path": "Run/Run_000.png",
                  "Plist": "Hero.Bruiser/0.plist"
                },
                "FrameIndex": 270,
                "Tween": false,
                "ctype": "TextureFrameData"
              },
              {
                "TextureFile": {
                  "Type": "PlistSubImage",
                  "Path": "Run/Run_001.png",
                  "Plist": "Hero.Bruiser/0.plist"
                },
                "FrameIndex": 275,
                "Tween": false,
                "ctype": "TextureFrameData"
              },
              {
                "TextureFile": {
                  "Type": "PlistSubImage",
                  "Path": "Run/Run_002.png",
                  "Plist": "Hero.Bruiser/0.plist"
                },
                "FrameIndex": 280,
                "Tween": false,
                "ctype": "TextureFrameData"
              },
              {
                "TextureFile": {
                  "Type": "PlistSubImage",
                  "Path": "Run/Run_003.png",
                  "Plist": "Hero.Bruiser/0.plist"
                },
                "FrameIndex": 285,
                "Tween": false,
                "ctype": "TextureFrameData"
              },
              {
                "TextureFile": {
                  "Type": "PlistSubImage",
                  "Path": "Run/Run_004.png",
                  "Plist": "Hero.Bruiser/0.plist"
                },
                "FrameIndex": 290,
                "Tween": false,
                "ctype": "TextureFrameData"
              },
              {
                "TextureFile": {
                  "Type": "PlistSubImage",
                  "Path": "Run/Run_005.png",
                  "Plist": "Hero.Bruiser/0.plist"
                },
                "FrameIndex": 295,
                "Tween": false,
                "ctype": "TextureFrameData"
              },
              {
                "TextureFile": {
                  "Type": "PlistSubImage",
                  "Path": "Run/Run_000.png",
                  "Plist": "Hero.Bruiser/0.plist"
                },
                "FrameIndex": 300,
                "Tween": false,
                "ctype": "TextureFrameData"
              },
              {
                "TextureFile": {
                  "Type": "PlistSubImage",
                  "Path": "Run/Run_001.png",
                  "Plist": "Hero.Bruiser/0.plist"
                },
                "FrameIndex": 305,
                "Tween": false,
                "ctype": "TextureFrameData"
              },
              {
                "TextureFile": {
                  "Type": "PlistSubImage",
                  "Path": "Run/Run_002.png",
                  "Plist": "Hero.Bruiser/0.plist"
                },
                "FrameIndex": 310,
                "Tween": false,
                "ctype": "TextureFrameData"
              },
              {
                "TextureFile": {
                  "Type": "PlistSubImage",
                  "Path": "Run/Run_003.png",
                  "Plist": "Hero.Bruiser/0.plist"
                },
                "FrameIndex": 315,
                "Tween": false,
                "ctype": "TextureFrameData"
              },
              {
                "TextureFile": {
                  "Type": "PlistSubImage",
                  "Path": "Run/Run_004.png",
                  "Plist": "Hero.Bruiser/0.plist"
                },
                "FrameIndex": 320,
                "Tween": false,
                "ctype": "TextureFrameData"
              },
              {
                "TextureFile": {
                  "Type": "PlistSubImage",
                  "Path": "Run/Run_005.png",
                  "Plist": "Hero.Bruiser/0.plist"
                },
                "FrameIndex": 325,
                "Tween": false,
                "ctype": "TextureFrameData"
              },
              {
                "TextureFile": {
                  "Type": "PlistSubImage",
                  "Path": "Run/Run_000.png",
                  "Plist": "Hero.Bruiser/0.plist"
                },
                "FrameIndex": 330,
                "Tween": false,
                "ctype": "TextureFrameData"
              },
              {
                "TextureFile": {
                  "Type": "PlistSubImage",
                  "Path": "Run/Run_001.png",
                  "Plist": "Hero.Bruiser/0.plist"
                },
                "FrameIndex": 335,
                "Tween": false,
                "ctype": "TextureFrameData"
              },
              {
                "TextureFile": {
                  "Type": "PlistSubImage",
                  "Path": "Run/Run_002.png",
                  "Plist": "Hero.Bruiser/0.plist"
                },
                "FrameIndex": 340,
                "Tween": false,
                "ctype": "TextureFrameData"
              },
              {
                "TextureFile": {
                  "Type": "PlistSubImage",
                  "Path": "Run/Run_003.png",
                  "Plist": "Hero.Bruiser/0.plist"
                },
                "FrameIndex": 345,
                "Tween": false,
                "ctype": "TextureFrameData"
              },
              {
                "TextureFile": {
                  "Type": "PlistSubImage",
                  "Path": "Run/Run_004.png",
                  "Plist": "Hero.Bruiser/0.plist"
                },
                "FrameIndex": 350,
                "Tween": false,
                "ctype": "TextureFrameData"
              },
              {
                "TextureFile": {
                  "Type": "PlistSubImage",
                  "Path": "Run/Run_005.png",
                  "Plist": "Hero.Bruiser/0.plist"
                },
                "FrameIndex": 355,
                "Tween": false,
                "ctype": "TextureFrameData"
              },
              {
                "TextureFile": {
                  "Type": "PlistSubImage",
                  "Path": "Run/Run_000.png",
                  "Plist": "Hero.Bruiser/0.plist"
                },
                "FrameIndex": 360,
                "Tween": false,
                "ctype": "TextureFrameData"
              },
              {
                "TextureFile": {
                  "Type": "PlistSubImage",
                  "Path": "Run/Run_001.png",
                  "Plist": "Hero.Bruiser/0.plist"
                },
                "FrameIndex": 365,
                "Tween": false,
                "ctype": "TextureFrameData"
              },
              {
                "TextureFile": {
                  "Type": "PlistSubImage",
                  "Path": "Run/Run_002.png",
                  "Plist": "Hero.Bruiser/0.plist"
                },
                "FrameIndex": 370,
                "Tween": false,
                "ctype": "TextureFrameData"
              },
              {
                "TextureFile": {
                  "Type": "PlistSubImage",
                  "Path": "Run/Run_003.png",
                  "Plist": "Hero.Bruiser/0.plist"
                },
                "FrameIndex": 375,
                "Tween": false,
                "ctype": "TextureFrameData"
              },
              {
                "TextureFile": {
                  "Type": "PlistSubImage",
                  "Path": "Run/Run_004.png",
                  "Plist": "Hero.Bruiser/0.plist"
                },
                "FrameIndex": 380,
                "Tween": false,
                "ctype": "TextureFrameData"
              },
              {
                "TextureFile": {
                  "Type": "PlistSubImage",
                  "Path": "Run/Run_005.png",
                  "Plist": "Hero.Bruiser/0.plist"
                },
                "FrameIndex": 385,
                "Tween": false,
                "ctype": "TextureFrameData"
              },
              {
                "TextureFile": {
                  "Type": "PlistSubImage",
                  "Path": "Run/Run_000.png",
                  "Plist": "Hero.Bruiser/0.plist"
                },
                "FrameIndex": 390,
                "Tween": false,
                "ctype": "TextureFrameData"
              },
              {
                "TextureFile": {
                  "Type": "PlistSubImage",
                  "Path": "Run/Run_001.png",
                  "Plist": "Hero.Bruiser/0.plist"
                },
                "FrameIndex": 395,
                "Tween": false,
                "ctype": "TextureFrameData"
              },
              {
                "TextureFile": {
                  "Type": "PlistSubImage",
                  "Path": "Run/Run_002.png",
                  "Plist": "Hero.Bruiser/0.plist"
                },
                "FrameIndex": 400,
                "Tween": false,
                "ctype": "TextureFrameData"
              },
              {
                "TextureFile": {
                  "Type": "PlistSubImage",
                  "Path": "Run/Run_003.png",
                  "Plist": "Hero.Bruiser/0.plist"
                },
                "FrameIndex": 405,
                "Tween": false,
                "ctype": "TextureFrameData"
              },
              {
                "TextureFile": {
                  "Type": "PlistSubImage",
                  "Path": "Run/Run_004.png",
                  "Plist": "Hero.Bruiser/0.plist"
                },
                "FrameIndex": 410,
                "Tween": false,
                "ctype": "TextureFrameData"
              },
              {
                "TextureFile": {
                  "Type": "PlistSubImage",
                  "Path": "Run/Run_005.png",
                  "Plist": "Hero.Bruiser/0.plist"
                },
                "FrameIndex": 415,
                "Tween": false,
                "ctype": "TextureFrameData"
              },
              {
                "TextureFile": {
                  "Type": "PlistSubImage",
                  "Path": "Run/Run_000.png",
                  "Plist": "Hero.Bruiser/0.plist"
                },
                "FrameIndex": 420,
                "Tween": false,
                "ctype": "TextureFrameData"
              },
              {
                "TextureFile": {
                  "Type": "PlistSubImage",
                  "Path": "Run/Run_001.png",
                  "Plist": "Hero.Bruiser/0.plist"
                },
                "FrameIndex": 425,
                "Tween": false,
                "ctype": "TextureFrameData"
              },
              {
                "TextureFile": {
                  "Type": "PlistSubImage",
                  "Path": "Run/Run_002.png",
                  "Plist": "Hero.Bruiser/0.plist"
                },
                "FrameIndex": 430,
                "Tween": false,
                "ctype": "TextureFrameData"
              },
              {
                "TextureFile": {
                  "Type": "PlistSubImage",
                  "Path": "Run/Run_003.png",
                  "Plist": "Hero.Bruiser/0.plist"
                },
                "FrameIndex": 435,
                "Tween": false,
                "ctype": "TextureFrameData"
              },
              {
                "TextureFile": {
                  "Type": "PlistSubImage",
                  "Path": "Run/Run_004.png",
                  "Plist": "Hero.Bruiser/0.plist"
                },
                "FrameIndex": 440,
                "Tween": false,
                "ctype": "TextureFrameData"
              },
              {
                "TextureFile": {
                  "Type": "PlistSubImage",
                  "Path": "Run/Run_005.png",
                  "Plist": "Hero.Bruiser/0.plist"
                },
                "FrameIndex": 445,
                "Tween": false,
                "ctype": "TextureFrameData"
              },
              {
                "TextureFile": {
                  "Type": "PlistSubImage",
                  "Path": "Run/Run_000.png",
                  "Plist": "Hero.Bruiser/0.plist"
                },
                "FrameIndex": 450,
                "Tween": false,
                "ctype": "TextureFrameData"
              },
              {
                "TextureFile": {
                  "Type": "PlistSubImage",
                  "Path": "Run/Run_001.png",
                  "Plist": "Hero.Bruiser/0.plist"
                },
                "FrameIndex": 455,
                "Tween": false,
                "ctype": "TextureFrameData"
              },
              {
                "TextureFile": {
                  "Type": "PlistSubImage",
                  "Path": "Run/Run_002.png",
                  "Plist": "Hero.Bruiser/0.plist"
                },
                "FrameIndex": 460,
                "Tween": false,
                "ctype": "TextureFrameData"
              },
              {
                "TextureFile": {
                  "Type": "PlistSubImage",
                  "Path": "Run/Run_003.png",
                  "Plist": "Hero.Bruiser/0.plist"
                },
                "FrameIndex": 465,
                "Tween": false,
                "ctype": "TextureFrameData"
              },
              {
                "TextureFile": {
                  "Type": "PlistSubImage",
                  "Path": "Run/Run_004.png",
                  "Plist": "Hero.Bruiser/0.plist"
                },
                "FrameIndex": 470,
                "Tween": false,
                "ctype": "TextureFrameData"
              },
              {
                "TextureFile": {
                  "Type": "PlistSubImage",
                  "Path": "Run/Run_005.png",
                  "Plist": "Hero.Bruiser/0.plist"
                },
                "FrameIndex": 475,
                "Tween": false,
                "ctype": "TextureFrameData"
              },
              {
                "TextureFile": {
                  "Type": "PlistSubImage",
                  "Path": "Run/Run_000.png",
                  "Plist": "Hero.Bruiser/0.plist"
                },
                "FrameIndex": 480,
                "Tween": false,
                "ctype": "TextureFrameData"
              },
              {
                "TextureFile": {
                  "Type": "PlistSubImage",
                  "Path": "Run/Run_001.png",
                  "Plist": "Hero.Bruiser/0.plist"
                },
                "FrameIndex": 485,
                "Tween": false,
                "ctype": "TextureFrameData"
              },
              {
                "TextureFile": {
                  "Type": "PlistSubImage",
                  "Path": "Run/Run_002.png",
                  "Plist": "Hero.Bruiser/0.plist"
                },
                "FrameIndex": 490,
                "Tween": false,
                "ctype": "TextureFrameData"
              },
              {
                "TextureFile": {
                  "Type": "PlistSubImage",
                  "Path": "Run/Run_003.png",
                  "Plist": "Hero.Bruiser/0.plist"
                },
                "FrameIndex": 495,
                "Tween": false,
                "ctype": "TextureFrameData"
              },
              {
                "TextureFile": {
                  "Type": "PlistSubImage",
                  "Path": "Run/Run_004.png",
                  "Plist": "Hero.Bruiser/0.plist"
                },
                "FrameIndex": 500,
                "Tween": false,
                "ctype": "TextureFrameData"
              },
              {
                "TextureFile": {
                  "Type": "PlistSubImage",
                  "Path": "Run/Run_005.png",
                  "Plist": "Hero.Bruiser/0.plist"
                },
                "FrameIndex": 505,
                "Tween": false,
                "ctype": "TextureFrameData"
              },
              {
                "TextureFile": {
                  "Type": "PlistSubImage",
                  "Path": "Run/Run_000.png",
                  "Plist": "Hero.Bruiser/0.plist"
                },
                "FrameIndex": 510,
                "Tween": false,
                "ctype": "TextureFrameData"
              },
              {
                "TextureFile": {
                  "Type": "PlistSubImage",
                  "Path": "Run/Run_001.png",
                  "Plist": "Hero.Bruiser/0.plist"
                },
                "FrameIndex": 515,
                "Tween": false,
                "ctype": "TextureFrameData"
              },
              {
                "TextureFile": {
                  "Type": "PlistSubImage",
                  "Path": "Run/Run_002.png",
                  "Plist": "Hero.Bruiser/0.plist"
                },
                "FrameIndex": 520,
                "Tween": false,
                "ctype": "TextureFrameData"
              },
              {
                "TextureFile": {
                  "Type": "PlistSubImage",
                  "Path": "Run/Run_003.png",
                  "Plist": "Hero.Bruiser/0.plist"
                },
                "FrameIndex": 525,
                "Tween": false,
                "ctype": "TextureFrameData"
              },
              {
                "TextureFile": {
                  "Type": "PlistSubImage",
                  "Path": "Run/Run_004.png",
                  "Plist": "Hero.Bruiser/0.plist"
                },
                "FrameIndex": 530,
                "Tween": false,
                "ctype": "TextureFrameData"
              },
              {
                "TextureFile": {
                  "Type": "PlistSubImage",
                  "Path": "Run/Run_005.png",
                  "Plist": "Hero.Bruiser/0.plist"
                },
                "FrameIndex": 535,
                "Tween": false,
                "ctype": "TextureFrameData"
              },
              {
                "TextureFile": {
                  "Type": "PlistSubImage",
                  "Path": "Run/Run_000.png",
                  "Plist": "Hero.Bruiser/0.plist"
                },
                "FrameIndex": 540,
                "Tween": false,
                "ctype": "TextureFrameData"
              },
              {
                "TextureFile": {
                  "Type": "PlistSubImage",
                  "Path": "Run/Run_001.png",
                  "Plist": "Hero.Bruiser/0.plist"
                },
                "FrameIndex": 545,
                "Tween": false,
                "ctype": "TextureFrameData"
              },
              {
                "TextureFile": {
                  "Type": "PlistSubImage",
                  "Path": "Run/Run_002.png",
                  "Plist": "Hero.Bruiser/0.plist"
                },
                "FrameIndex": 550,
                "Tween": false,
                "ctype": "TextureFrameData"
              },
              {
                "TextureFile": {
                  "Type": "PlistSubImage",
                  "Path": "Run/Run_003.png",
                  "Plist": "Hero.Bruiser/0.plist"
                },
                "FrameIndex": 555,
                "Tween": false,
                "ctype": "TextureFrameData"
              },
              {
                "TextureFile": {
                  "Type": "PlistSubImage",
                  "Path": "Run/Run_004.png",
                  "Plist": "Hero.Bruiser/0.plist"
                },
                "FrameIndex": 560,
                "Tween": false,
                "ctype": "TextureFrameData"
              },
              {
                "TextureFile": {
                  "Type": "PlistSubImage",
                  "Path": "Run/Run_005.png",
                  "Plist": "Hero.Bruiser/0.plist"
                },
                "FrameIndex": 565,
                "Tween": false,
                "ctype": "TextureFrameData"
              },
              {
                "TextureFile": {
                  "Type": "PlistSubImage",
                  "Path": "Run/Run_000.png",
                  "Plist": "Hero.Bruiser/0.plist"
                },
                "FrameIndex": 570,
                "Tween": false,
                "ctype": "TextureFrameData"
              },
              {
                "TextureFile": {
                  "Type": "PlistSubImage",
                  "Path": "Run/Run_001.png",
                  "Plist": "Hero.Bruiser/0.plist"
                },
                "FrameIndex": 575,
                "Tween": false,
                "ctype": "TextureFrameData"
              },
              {
                "TextureFile": {
                  "Type": "PlistSubImage",
                  "Path": "Run/Run_002.png",
                  "Plist": "Hero.Bruiser/0.plist"
                },
                "FrameIndex": 580,
                "Tween": false,
                "ctype": "TextureFrameData"
              },
              {
                "TextureFile": {
                  "Type": "PlistSubImage",
                  "Path": "Run/Run_003.png",
                  "Plist": "Hero.Bruiser/0.plist"
                },
                "FrameIndex": 585,
                "Tween": false,
                "ctype": "TextureFrameData"
              },
              {
                "TextureFile": {
                  "Type": "PlistSubImage",
                  "Path": "Run/Run_004.png",
                  "Plist": "Hero.Bruiser/0.plist"
                },
                "FrameIndex": 590,
                "Tween": false,
                "ctype": "TextureFrameData"
              },
              {
                "TextureFile": {
                  "Type": "PlistSubImage",
                  "Path": "Run/Run_005.png",
                  "Plist": "Hero.Bruiser/0.plist"
                },
                "FrameIndex": 595,
                "Tween": false,
                "ctype": "TextureFrameData"
              },
              {
                "TextureFile": {
                  "Type": "PlistSubImage",
                  "Path": "Run/Run_000.png",
                  "Plist": "Hero.Bruiser/0.plist"
                },
                "FrameIndex": 600,
                "Tween": false,
                "ctype": "TextureFrameData"
              }
            ],
            "ctype": "TimelineData"
          }
        ],
        "ctype": "TimelineActionData"
      },
      "AnimationList": [
        {
          "StartIndex": 0,
          "EndIndex": 300,
          "Name": "anim_bgScroll",
          "ctype": "AnimationInfoData"
        },
        {
          "StartIndex": 300,
          "EndIndex": 600,
          "Name": "animation0",
          "ctype": "AnimationInfoData"
        },
        {
          "StartIndex": 0,
          "EndIndex": 30,
          "Name": "animation_run",
          "ctype": "AnimationInfoData"
        }
      ],
      "ObjectData": {
        "CustomClassName": "MenuScene",
        "UserData": "MenuScene enabled",
        "Tag": 4,
        "Children": [
          {
            "FileData": {
              "Type": "Normal",
              "Path": "environment1/BG_1.png",
              "Plist": ""
            },
            "Scale9Enable": true,
            "Scale9OriginX": 1276,
            "Scale9OriginY": 356,
            "Scale9Width": 1316,
            "Scale9Height": 368,
            "AnchorPoint": {
              "ScaleX": 0.5,
              "ScaleY": 0.5
            },
            "Position": {
              "X": -35.0168,
              "Y": 534.2815
            },
            "Scale": {
              "ScaleX": 1.0155,
              "ScaleY": 1.0155
            },
            "CColor": {},
            "IconVisible": false,
            "PrePosition": {
              "X": -0.0182,
              "Y": 0.4947
            },
            "PreSize": {
              "X": 2.0146,
              "Y": 1.0
            },
            "LeftMargin": -1969.0168,
            "RightMargin": 21.0168,
            "TopMargin": 5.7185,
            "BottomMargin": -5.7185,
            "Tag": 8,
            "ActionTag": 892781505,
            "Size": {
              "X": 3868.0,
              "Y": 1080.0
            },
            "Alpha": 204,
            "Name": "Image_1",
            "ctype": "ImageViewObjectData"
          },
          {
            "FontSize": 14,
            "ButtonText": "",
            "TextColor": {
              "R": 65,
              "G": 65,
              "B": 70
            },
            "NormalFileData": {
              "Type": "Normal",
              "Path": "btn/button_artbord-01.png",
              "Plist": ""
            },
            "Scale9Enable": true,
            "Scale9OriginX": 15,
            "Scale9OriginY": 11,
            "Scale9Width": 93,
            "Scale9Height": 101,
            "OutlineColor": {
              "G": 0,
              "B": 0
            },
            "ShadowColor": {
              "R": 110,
              "G": 110,
              "B": 110
            },
            "ShadowOffsetX": 2.0,
            "ShadowOffsetY": -2.0,
            "TouchEnable": true,
            "AnchorPoint": {
              "ScaleX": 0.5,
              "ScaleY": 0.5
            },
            "Position": {
              "X": 945.2262,
              "Y": 547.6189
            },
            "Scale": {
              "ScaleX": 2.3819,
              "ScaleY": 2.3819
            },
            "CColor": {},
            "IconVisible": false,
            "PrePosition": {
              "X": 0.4923,
              "Y": 0.5071
            },
            "PreSize": {
              "X": 0.0641,
              "Y": 0.1139
            },
            "LeftMargin": 883.7262,
            "RightMargin": 913.2738,
            "TopMargin": 470.8811,
            "BottomMargin": 486.1189,
            "CallBackType": "Touch",
            "CallBackName": "btn_play",
            "UserData": "play button touched",
            "Tag": 1,
            "ActionTag": 1220279320,
            "Size": {
              "X": 123.0,
              "Y": 123.0
            },
            "Name": "btn_play",
            "ctype": "ButtonObjectData"
          },
          {
            "FontSize": 14,
            "ButtonText": "",
            "TextColor": {
              "R": 65,
              "G": 65,
              "B": 70
            },
            "NormalFileData": {
              "Type": "Normal",
              "Path": "btn/button_artbord-02.png",
              "Plist": ""
            },
            "Scale9Enable": true,
            "Scale9OriginX": 15,
            "Scale9OriginY": 11,
            "Scale9Width": 93,
            "Scale9Height": 101,
            "OutlineColor": {
              "G": 0,
              "B": 0
            },
            "ShadowColor": {
              "R": 110,
              "G": 110,
              "B": 110
            },
            "ShadowOffsetX": 2.0,
            "ShadowOffsetY": -2.0,
            "TouchEnable": true,
            "AnchorPoint": {
              "ScaleX": 0.5,
              "ScaleY": 0.5
            },
            "Position": {
              "X": 83.0504,
              "Y": 114.9388
            },
            "Scale": {
              "ScaleX": 1.1385,
              "ScaleY": 1.1385
            },
            "CColor": {},
            "IconVisible": false,
            "PrePosition": {
              "X": 0.0433,
              "Y": 0.1064
            },
            "PreSize": {
              "X": 0.0641,
              "Y": 0.1139
            },
            "LeftMargin": 21.5504,
            "RightMargin": 1775.4496,
            "TopMargin": 903.5612,
            "BottomMargin": 53.4388,
            "CallBackType": "Touch",
            "CallBackName": "btn_highscore",
            "UserData": "highscore_touched",
            "Tag": 2,
            "ActionTag": -1699095961,
            "Size": {
              "X": 123.0,
              "Y": 123.0
            },
            "Name": "btn_highscore",
            "ctype": "ButtonObjectData"
          },
          {
            "FileData": {
              "Type": "PlistSubImage",
              "Path": "Run/Run_000.png",
              "Plist": "Hero.Bruiser/0.plist"
            },
            "BlendFunc": {
              "Src": 1,
              "Dst": 771
            },
            "AnchorPoint": {
              "ScaleX": 0.8257,
              "ScaleY": 0.1062
            },
            "Position": {
              "X": 2000.0,
              "Y": 85.0348
            },
            "Scale": {
              "ScaleX": 1.0,
              "ScaleY": 1.0
            },
            "CColor": {},
            "IconVisible": false,
            "PrePosition": {
              "X": 1.0417,
              "Y": 0.0787
            },
            "PreSize": {
              "X": 0.0771,
              "Y": 0.1935
            },
            "LeftMargin": 1877.7894,
            "RightMargin": -105.7894,
            "TopMargin": 808.1648,
            "BottomMargin": 62.8352,
            "Tag": 114,
            "ActionTag": -1934218977,
            "Size": {
              "X": 148.0,
              "Y": 209.0
            },
            "Name": "Sprite_1",
            "ctype": "SpriteObjectData"
          },
          {
            "FontSize": 14,
            "ButtonText": "",
            "TextColor": {
              "R": 65,
              "G": 65,
              "B": 70
            },
            "NormalFileData": {
              "Type": "Normal",
              "Path": "btn/button_artbord-04.png",
              "Plist": ""
            },
            "Scale9Enable": true,
            "Scale9OriginX": 15,
            "Scale9OriginY": 11,
            "Scale9Width": 93,
            "Scale9Height": 101,
            "OutlineColor": {
              "G": 0,
              "B": 0
            },
            "ShadowColor": {
              "R": 110,
              "G": 110,
              "B": 110
            },
            "ShadowOffsetX": 2.0,
            "ShadowOffsetY": -2.0,
            "TouchEnable": true,
            "AnchorPoint": {
              "ScaleX": 0.4591,
              "ScaleY": 0.3217
            },
            "Position": {
              "X": 1803.0763,
              "Y": 92.0097
            },
            "Scale": {
              "ScaleX": 1.1242,
              "ScaleY": 1.1242
            },
            "CColor": {},
            "IconVisible": false,
            "PrePosition": {
              "X": 0.9391,
              "Y": 0.0852
            },
            "PreSize": {
              "X": 0.0641,
              "Y": 0.1139
            },
            "LeftMargin": 1746.6069,
            "RightMargin": 50.3931,
            "TopMargin": 904.5594,
            "BottomMargin": 52.4406,
            "CallBackType": "Touch",
            "UserData": "btn_store touched!",
            "Tag": 3,
            "ActionTag": -1190404352,
            "Size": {
              "X": 123.0,
              "Y": 123.0
            },
            "Name": "btn_store",
            "ctype": "ButtonObjectData"
          }
        ],
        "Size": {
          "X": 1920.0,
          "Y": 1080.0
        },
        "Name": "MenuScene",
        "ctype": "SingleNodeObjectData"
      },
      "UsedResources": [
        "btn/button_artbord-01.png",
        "btn/button_artbord-02.png",
        "btn/button_artbord-04.png",
        "environment1/BG_1.png",
        "Hero.Bruiser/0.plist",
        "Hero.Bruiser/0.png"
      ],
      "ctype": "GameFileData"
    }
  },
  "Type": "Scene"
}